Übung C Spatial Joins
…
bezirke <- read_sf("bezirke.gpkg")
st_crs(bezirke) <- 2056

Aufgabe 1: Spatialjoin mit Punkten

Wir wollen nun wissen, ob die Wasserverfügbarkeit im Boden mit dem Skelettgehalt zusammen hängt. Dazu nutzen wir die GIS-Technik Spatial Join, die in der Vorlesung beschrieben wurde. In sf können wir Spatial Joins mit der Funktion st_join durchführen, dabei gibt es nur left sowie inner-Joins (vgl. PrePro 1 & 2). So müssen die Punkte “Links”, also an erste Stelle aufgeführt werden, da wir ja Attribute an die Punkte anheften wollen.

Simple feature collection with 983 features and 2 fields
Geometry type: POINT
Dimension:     XY
Bounding box:  xmin: 2488856 ymin: 1082207 xmax: 2829396 ymax: 1290606
Projected CRS: CH1903+ / LV95
# A tibble: 983 × 3
   wasserverfuegbarkeit              geom SKELETT
 *                <dbl>       <POINT [m]>   <dbl>
 1                    0 (2579078 1082451)       4
 2                 -104 (2718058 1084509)       5
 3                    0 (2726124 1082207)       4
 4                    0 (2572275 1088453)      NA
 5                    0 (2576536 1089011)      NA
 6                    0 (2583644 1089940)       4
 7                    0 (2591235 1089757)      NA
 8                    0 (2596953 1088212)      NA
 9                    0 (2602365 1088641)      NA
10                    0 (2621629 1090365)      NA
# … with 973 more rows
…
