Research Methods
…
summarise() fasst einen Datensatz zusammen. Dabei reduziert sich die Anzahl Beobachtungen (Zeilen) auf die Anzahl Gruppen (z.B. eine zusammengefasste Beobachtung (Zeile) pro Jahr). Zudem reduziert sich die Anzahl Variablen (Spalten) auf diejenigen, die in der “summarise” Funktion spezifiziert wurde (z.B. temp_mittel)

mit mutate wird eine data.frame vom Umfang her belassen, es werden lediglich zusätzliche Variablen (Spalten) hinzugefügt (siehe Beispiel unten)

# Maximal und minimal Temperatur pro Kalenderwoche
wetter %>%                              #1) nimm den Datensatz "wetter"
  filter(stn == "ABO") %>%              #2) filter auf Station namnes "ABO"
  mutate(kw = week(datetime)) %>%       #3) erstelle eine neue Spalte "kw"
  group_by(kw) %>%                      #4) Nutze die neue Spalte um Guppen zu bilden
  summarise(
    temp_max = max(tre200h0, na.rm = T),#5) Berechne das Maximum 
    temp_min = min(tre200h0, na.rm = T) #6) Berechne das Minimum
    )   
## # A tibble: 53 x 3
##       kw temp_max temp_min
##    <dbl>    <dbl>    <dbl>
##  1     1     11.4    -15.2
##  2     2     12.9    -15.9
##  3     3      8.2    -11.3
##  4     4      9.6    -15.9
##  5     5     16.9    -17.5
##  6     6     13.5    -13.1
##  7     7     12.9    -15.4
##  8     8     11.0    -14.4
##  9     9     12.9    -17.6
## 10    10     15.4    -16.3
## # ... with 43 more rows
…
Beachtet, dass wir gegenüber dem letzten Plot colour nun innerhalb von aes() festlegen und nicht mit einem expliziten Farbwert, sondern mit dem Verweis auf die Spalte key.

3.1.2.2 Lang -> breit

Um unsere lange Tabelle wieder zurück in eine breite zu überführen, brauchen wir lediglich ein Befehl (spread):

wetter_sry_long %>%
  spread(Key,Value)
## # A tibble: 53 x 4
##       kw temp_max  temp_mean temp_min
##  * <dbl>    <dbl>      <dbl>    <dbl>
##  1     1     11.4 -1.2593254    -15.2
##  2     2     12.9 -1.5572421    -15.9
##  3     3      8.2 -1.8832341    -11.3
##  4     4      9.6 -2.8375000    -15.9
##  5     5     16.9 -0.9789683    -17.5
##  6     6     13.5  0.4392857    -13.1
##  7     7     12.9 -2.3209325    -15.4
##  8     8     11.0 -2.8413690    -14.4
##  9     9     12.9 -2.2044643    -17.6
## 10    10     15.4  0.9166667    -16.3
## # ... with 43 more rows
…
