Research Methods
…
Beim Import von Daten kann es sinnvoll sein, die Datentypen der Spalten bereits im Importbefehl zu spezifizieren. So vermeidet man die anschliessende Typumwandlung und die damit verbundenen Fehlerquellen. Zudem wird der Importprozess beschleunigt, da R keine Zeit daran verschwenden muss die Datentypen (aufgrund der ersten 1000 Zeilen) zu erraten.

library(tidyverse)

df1 <- read_table("09_PrePro1/data/order_52252_data.txt",
                  col_types = list(
                    col_character(),                  # Macht aus der 1.Spalte ein character
                    col_datetime(format = "%Y%m%d%H"),# Macht aus der 2.Spalte ein POSIXct
                    col_double()                      # Macht aus der 3.Spalte ein double
                    )
                  )

df1
## # A tibble: 1,262,639 x 3
##    stn   time                tre200h0
##    <chr> <dttm>                 <dbl>
##  1 ABO   2000-01-01 00:00:00     -2.6
##  2 ABO   2000-01-01 01:00:00     -2.5
##  3 ABO   2000-01-01 02:00:00     -3.1
##  4 ABO   2000-01-01 03:00:00     -2.4
##  5 ABO   2000-01-01 04:00:00     -2.5
##  6 ABO   2000-01-01 05:00:00     -3  
##  7 ABO   2000-01-01 06:00:00     -3.7
##  8 ABO   2000-01-01 07:00:00     -4.4
##  9 ABO   2000-01-01 08:00:00     -4.1
## 10 ABO   2000-01-01 09:00:00     -4.1
## # ... with 1,262,629 more rows

df1 <- read_table("09_PrePro1/data/order_52252_data.txt",
                  col_types = list(
                    col_factor(levels = NULL),        # Macht aus der 1.Spalte ein factor
                    col_datetime(format = "%Y%m%d%H"),# Macht aus der 2.Spalte ein POSIXct
                    col_double()                      # Macht aus der 3.Spalte ein double
                    )
                  )

df1
## # A tibble: 1,262,639 x 3
##    stn   time                tre200h0
##    <fct> <dttm>                 <dbl>
##  1 ABO   2000-01-01 00:00:00     -2.6
##  2 ABO   2000-01-01 01:00:00     -2.5
##  3 ABO   2000-01-01 02:00:00     -3.1
##  4 ABO   2000-01-01 03:00:00     -2.4
##  5 ABO   2000-01-01 04:00:00     -2.5
##  6 ABO   2000-01-01 05:00:00     -3  
##  7 ABO   2000-01-01 06:00:00     -3.7
##  8 ABO   2000-01-01 07:00:00     -4.4
##  9 ABO   2000-01-01 08:00:00     -4.1
## 10 ABO   2000-01-01 09:00:00     -4.1
## # ... with 1,262,629 more rows
