Research Methods
…
sleep <- sleep %>%
  mutate(
    bodywt_log10 = log10(bodywt),
    bodywt_sqrt = sqrt(bodywt),
    bodywt_4throot = bodywt^0.25
  ) %>%
  gather(key,val, -c(name,vore))

sleep
## # A tibble: 204 x 4
##    name              vore  key        val
##    <chr>             <chr> <chr>    <dbl>
##  1 Cheetah           carni bodywt  50    
##  2 Mountain beaver   herbi bodywt   1.35 
##  3 Cow               herbi bodywt 600    
##  4 Three-toed sloth  herbi bodywt   3.85 
##  5 Northern fur seal carni bodywt  20.5  
##  6 Dog               carni bodywt  14    
##  7 Roe deer          herbi bodywt  14.8  
##  8 Goat              herbi bodywt  33.5  
##  9 Guinea pig        herbi bodywt   0.728
## 10 Chinchilla        herbi bodywt   0.42 
## # ... with 194 more rows
…
