Übung B Koordinatensysteme
…
Aufgabe 2: Koordinatensyteme transformieren

In der vorherigen Übung haben wir das bestehende Koordinatensystem zugewiesen. Dabei haben wir die bestehenden Koordinaten (in der Spalte geom) nicht manipuliert. Ganz anders ist eine Transformation der Daten von einem Koordinatensystem in das andere. Bei einer Transformation werden die Koordinaten in das neue Koordinatensystem umgerechnet und somit manipuliert. Aus praktischen Gründen wollen  wir all unsere Daten ins neue Schweizer Koordinatensystem CH1903+ LV95 transfomieren. Transformiere den Datensatz kantone mit st_transform()in CH1903+ LV95, nutze dafür den korrekten EPSG-Code.

Vor der Transformation (betrachte die Attribute Bounding box sowie Geodetic CRS):

kantone

Simple feature collection with 47 features and 11 fields
Geometry type: POLYGON
Dimension:     XYZ
Bounding box:  xmin: 5.956088 ymin: 45.81797 xmax: 10.49204 ymax: 47.80849
z_range:       zmin: -1.455192e-11 zmax: -1.455192e-11
Geodetic CRS:  WGS 84
# A tibble: 47 × 12
   OBJECTID UUID      DATUM_AEND OBJEKTART KANTONSNUM KANTONSFLA NAME 
 *    <dbl> <chr>     <date>     <chr>     <chr>           <dbl> <chr>
 1       74 36FA8A5A… 2013-07-15 Kanton    CH08000000       686. Glar…
 2       76 A91BCD85… 2013-07-15 Kanton    CH23000000      5225. Vala…
 3       77 1CD63010… 2013-07-15 Kanton    CH18000000      7107. Grau…
 4       78 2EAD5536… 2013-07-15 Kanton    CH22000000      3212. Vaud 
 5       79 2EAD5536… 2013-07-15 Kanton    CH22000000      3212. Vaud 
 6       81 DA9044F3… 2013-07-15 Kanton    CH02000000      5959. Bern 
 7       82 DA9044F3… 2013-07-15 Kanton    CH02000000      5959. Bern 
 8       83 DA9044F3… 2013-07-15 Kanton    CH02000000      5959. Bern 
 9       84 DA9044F3… 2013-07-15 Kanton    CH02000000      5959. Bern 
10       90 D9854324… 2013-07-15 Kanton    CH21000000      2812. Tici…
# … with 37 more rows, and 5 more variables: ICC <chr>,
#   EINWOHNERZ <dbl>, Nummer <dbl>, Abk <chr>, geom <POLYGON [°]>

kantone <- st_transform(kantone, 2056)

Nach der Transformation (betrachte die Attribute Bounding box sowie Projected CRS):

kantone

Simple feature collection with 47 features and 11 fields
Geometry type: POLYGON
Dimension:     XYZ
Bounding box:  xmin: 2485424 ymin: 1075268 xmax: 2833842 ymax: 1295937
z_range:       zmin: -1.455192e-11 zmax: -1.455192e-11
Projected CRS: CH1903+ / LV95
# A tibble: 47 × 12
   OBJECTID UUID      DATUM_AEND OBJEKTART KANTONSNUM KANTONSFLA NAME 
 *    <dbl> <chr>     <date>     <chr>     <chr>           <dbl> <chr>
 1       74 36FA8A5A… 2013-07-15 Kanton    CH08000000       686. Glar…
 2       76 A91BCD85… 2013-07-15 Kanton    CH23000000      5225. Vala…
 3       77 1CD63010… 2013-07-15 Kanton    CH18000000      7107. Grau…
 4       78 2EAD5536… 2013-07-15 Kanton    CH22000000      3212. Vaud 
 5       79 2EAD5536… 2013-07-15 Kanton    CH22000000      3212. Vaud 
 6       81 DA9044F3… 2013-07-15 Kanton    CH02000000      5959. Bern 
 7       82 DA9044F3… 2013-07-15 Kanton    CH02000000      5959. Bern 
 8       83 DA9044F3… 2013-07-15 Kanton    CH02000000      5959. Bern 
 9       84 DA9044F3… 2013-07-15 Kanton    CH02000000      5959. Bern 
10       90 D9854324… 2013-07-15 Kanton    CH21000000      2812. Tici…
# … with 37 more rows, and 5 more variables: ICC <chr>,
#   EINWOHNERZ <dbl>, Nummer <dbl>, Abk <chr>, geom <POLYGON [m]>
