Modul Research Methods: Übung A
…
Aufgabe 4: Koordinatensyteme transformieren

In der vorherigen Übung haben wir das bestehende Koordinatensystem zugewiesen. Dabei haben wir die bestehenden Koordinaten (in der Spalte geom) nicht manipuliert. Ganz anders ist eine Transformation der Daten von einem Koordinatensystem in das andere. Bei einer Transformation werden die Koordinaten in das neue Koordinatensystem umgerechnet und somit manipuliert. Aus praktischen Gründen wollen  wir all unsere Daten ins neue Schweizer Koordinatensystem CH1903+ LV95 transfomieren. Transformiere den Datensatz kantone mit st_transform()in CH1903+ LV95, nutze dafür den korrekten EPSG-Code.

Vor der Transformation (betrachte die Attribute Bounding box sowie CRS-Information):

kantone

Simple feature collection with 51 features and 6 fields
Geometry type: POLYGON
Dimension:     XY
Bounding box:  xmin: 5.955902 ymin: 45.81796 xmax: 10.49217 ymax: 47.80845
Geodetic CRS:  WGS 84
# A tibble: 51 × 7
   NAME            KANTONSNUM SEE_FLAECH KANTONSFLA KT_TEIL EINWOHNERZ
 * <chr>                <dbl>      <dbl>      <dbl> <chr>        <dbl>
 1 Aargau                  19        870     140380 1           685845
 2 Aargau                  19         NA         NA 2               NA
 3 Appenzell Auss…         15         NA      24284 0            55445
 4 Appenzell Inne…         16         NA      17248 1            16128
 5 Appenzell Inne…         16         NA         NA 2               NA
 6 Appenzell Inne…         16         NA         NA 3               NA
 7 Appenzell Inne…         16         NA         NA 4               NA
 8 Appenzell Inne…         16         NA         NA 5               NA
 9 Basel-Landscha…         13         NA      51767 1           289468
10 Basel-Landscha…         13         NA         NA 2               NA
# … with 41 more rows, and 1 more variable: geom <POLYGON [°]>

kantone <- st_transform(kantone, 2056)

Nach der Transformation (betrachte die Attribute Bounding box sowie CRS-Information):

kantone

Simple feature collection with 51 features and 6 fields
Geometry type: POLYGON
Dimension:     XY
Bounding box:  xmin: 2485410 ymin: 1075268 xmax: 2833858 ymax: 1295934
Projected CRS: CH1903+ / LV95
# A tibble: 51 × 7
   NAME            KANTONSNUM SEE_FLAECH KANTONSFLA KT_TEIL EINWOHNERZ
 * <chr>                <dbl>      <dbl>      <dbl> <chr>        <dbl>
 1 Aargau                  19        870     140380 1           685845
 2 Aargau                  19         NA         NA 2               NA
 3 Appenzell Auss…         15         NA      24284 0            55445
 4 Appenzell Inne…         16         NA      17248 1            16128
 5 Appenzell Inne…         16         NA         NA 2               NA
 6 Appenzell Inne…         16         NA         NA 3               NA
 7 Appenzell Inne…         16         NA         NA 4               NA
 8 Appenzell Inne…         16         NA         NA 5               NA
 9 Basel-Landscha…         13         NA      51767 1           289468
10 Basel-Landscha…         13         NA         NA 2               NA
# … with 41 more rows, and 1 more variable: geom <POLYGON [m]>
…
