Übungen A: Einführung
…
Aufgabe 3: Koordinatensyteme transformieren

In der vorherigen Übung haben wir das bestehende Koordinatensystem zugewiesen. Dabei haben wir die bestehenden Koordinaten (in der Spalte geom) nicht manipuliert. Ganz anders ist eine Transformation der Daten von einem Koordinatensystem in das andere. Bei einer Transformation werden die Koordinaten in das neue Koordinatensystem umgerechnet und somit manipuliert. Aus praktischen Gründen wollen  wir all unsere Daten ins neue Schweizer Koordinatensystem CH1903+ LV95 transfomieren. Transformiere den Datensatz kantone mit st_transform()in CH1903+ LV95, nutze dafür den korrekten EPSG-Code.

Vor der Transformation (betrachte die Attribute Bounding box sowie Geodetic CRS):

kantone

Simple feature collection with 51 features and 6 fields
Geometry type: POLYGON
Dimension:     XY
Bounding box:  xmin: 5.955902 ymin: 45.81796 xmax: 10.49217 ymax: 47.80845
Geodetic CRS:  WGS 84
# A tibble: 51 × 7
   NAME       KANTONSNUM SEE_FLAECH KANTONSFLA KT_TEIL EINWOHNERZ
 * <chr>           <dbl>      <dbl>      <dbl> <chr>        <dbl>
 1 Graubünden         18         NA     710530 0           199021
 2 Bern                2      11897     595951 1          1039474
 3 Valais             23       1060     522463 0           345525
 4 Vaud               22      39097     321202 1           805098
 5 Ticino             21       7147     281215 0           351491
 6 St. Gallen         17       7720     202820 1           510734
 7 Zürich              1       6811     172894 0          1539275
 8 Fribourg           10       7818     167142 1           321783
 9 Luzern              3       6438     149352 0           413120
10 Aargau             19        870     140380 1           685845
# … with 41 more rows, and 1 more variable: geom <POLYGON [°]>

Nach der Transformation (betrachte die Attribute Bounding box sowie Projected CRS):

kantone

Simple feature collection with 51 features and 6 fields
Geometry type: POLYGON
Dimension:     XY
Bounding box:  xmin: 2485410 ymin: 1075268 xmax: 2833858 ymax: 1295934
Projected CRS: CH1903+ / LV95
# A tibble: 51 × 7
   NAME       KANTONSNUM SEE_FLAECH KANTONSFLA KT_TEIL EINWOHNERZ
 * <chr>           <dbl>      <dbl>      <dbl> <chr>        <dbl>
 1 Graubünden         18         NA     710530 0           199021
 2 Bern                2      11897     595951 1          1039474
 3 Valais             23       1060     522463 0           345525
 4 Vaud               22      39097     321202 1           805098
 5 Ticino             21       7147     281215 0           351491
 6 St. Gallen         17       7720     202820 1           510734
 7 Zürich              1       6811     172894 0          1539275
 8 Fribourg           10       7818     167142 1           321783
 9 Luzern              3       6438     149352 0           413120
10 Aargau             19        870     140380 1           685845
# … with 41 more rows, and 1 more variable: geom <POLYGON [m]>
…
