Modul Research Methods: Einführung und Übungen A bis C
…
## -- Aufgabe 4: Koordinatensyteme transformieren -- ##

In der vorherigen Übung haben wir das bestehende Koordinatensystem zugewiesen. Dabei haben wir die bestehenden Koordinaten (in der Spalte geom) nicht manipuliert. Ganz anders ist eine Transformation der Daten von einem Koordinatensystem in das andere. Bei einer Transformation werden die Koordinaten in das neue Koordinatensystem umgerechnet und somit manipuliert. Aus praktischen Gründen wollen  wir all unsere Daten ins neue Schweizer Koordinatensystem CH1903+ LV95 transfomieren. Transformiere den Datensatz wasser mit st_transform()in CH1903+ LV95, nutze dafür den korrekten EPSG-Code.

Vor der Transformation (betrachte die Spalte geom sowie die Attribute epsg (SRID) und proj4string):

wasser

Simple feature collection with 993 features and 1 field
Geometry type: POINT
Dimension:     XY
Bounding box:  xmin: 6.006132 ymin: 45.84509 xmax: 10.46693 ymax: 47.76851
Geodetic CRS:  WGS 84
# A tibble: 993 × 2
   wasserverfuegbarkeit                geom
 *                <dbl>         <POINT [°]>
 1                 -167 (8.997155 45.84509)
 2                    0 (7.072459 45.91802)
 3                    0 (7.153695 45.90636)
 4                    0 (7.251192 45.91059)
 5                    0 (7.380257 45.92894)
 6                    0 (7.423909 45.92544)
 7                    0 (9.013727 45.91338)
 8                  -91 (9.051913 45.89967)
 9                    0  (7.069596 45.9689)
10                 -102  (7.175481 45.9782)
# … with 983 more rows

wasser <- st_transform(wasser, 2056)

Nach der Transformation (betrachte die Spalte geom):

wasser

Simple feature collection with 993 features and 1 field
Geometry type: POINT
Dimension:     XY
Bounding box:  xmin: 2489453 ymin: 1078252 xmax: 2830887 ymax: 1291537
Projected CRS: CH1903+ / LV95
# A tibble: 993 × 2
   wasserverfuegbarkeit              geom
 *                <dbl>       <POINT [m]>
 1                 -167 (2721079 1078252)
 2                    0 (2571587 1085224)
 3                    0 (2577885 1083902)
 4                    0 (2585453 1084350)
 5                    0 (2595470 1086373)
 6                    0 (2598856 1085983)
 7                    0 (2722214 1085868)
 8                  -91 (2725207 1084404)
 9                    0 (2571392 1090881)
10                 -102 (2579603 1091882)
# … with 983 more rows

Übung C: Spatial Joins

Aufgabe 5: Spatialjoin mit Punkten

## -- Aufgabe 5: Spatialjoin -- ##

Wir wollen nun wissen, ob die Wasserverfügbarkeit im Boden mit dem Skelettgehalt zusammen hängt. Dazu nutzen wir die GIS-Technik Spatial Join, die in der Vorlesung beschrieben wurde. In sf können wir Spatial Joins mit der Funktion st_join durchführen, dabei gibt es nur left sowie inner-Joins (vgl. PrePro 1 & 2). So müssen die Punkte “Links”, also an erste Stelle aufgeführt werden, da wir ja Attribute an die Punkte anheften wollen.

Simple feature collection with 993 features and 2 fields
Geometry type: POINT
Dimension:     XY
Bounding box:  xmin: 2489453 ymin: 1078252 xmax: 2830887 ymax: 1291537
Projected CRS: CH1903+ / LV95
# A tibble: 993 × 3
   wasserverfuegbarkeit              geom SKELETT
 *                <dbl>       <POINT [m]>   <dbl>
 1                 -167 (2721079 1078252)       3
 2                    0 (2571587 1085224)      NA
 3                    0 (2577885 1083902)      NA
 4                    0 (2585453 1084350)      NA
 5                    0 (2595470 1086373)      NA
 6                    0 (2598856 1085983)      NA
 7                    0 (2722214 1085868)       4
 8                  -91 (2725207 1084404)       4
 9                    0 (2571392 1090881)      NA
10                 -102 (2579603 1091882)       4
# … with 983 more rows
…
